%YAML 1.1
%TAG !u! tag:unity3d.com,2011:
--- !u!1 &3457215244687442390
GameObject:
  m_ObjectHideFlags: 0
  m_CorrespondingSourceObject: {fileID: 0}
  m_PrefabInstance: {fileID: 0}
  m_PrefabAsset: {fileID: 0}
  serializedVersion: 6
  m_Component:
  - component: {fileID: 3457215244687442391}
  - component: {fileID: 3457215244687442409}
  - component: {fileID: 3457215244687442408}
  m_Layer: 5
  m_Name: bg
  m_TagString: Untagged
  m_Icon: {fileID: 0}
  m_NavMeshLayer: 0
  m_StaticEditorFlags: 0
  m_IsActive: 1
--- !u!224 &3457215244687442391
RectTransform:
  m_ObjectHideFlags: 0
  m_CorrespondingSourceObject: {fileID: 0}
  m_PrefabInstance: {fileID: 0}
  m_PrefabAsset: {fileID: 0}
  m_GameObject: {fileID: 3457215244687442390}
  m_LocalRotation: {x: 0, y: 0, z: 0, w: 1}
  m_LocalPosition: {x: 0, y: 0, z: 0}
  m_LocalScale: {x: 1, y: 1, z: 1}
  m_ConstrainProportionsScale: 0
  m_Children: []
  m_Father: {fileID: 3457215245485719211}
  m_RootOrder: 0
  m_LocalEulerAnglesHint: {x: 0, y: 0, z: 0}
  m_AnchorMin: {x: 0, y: 0}
  m_AnchorMax: {x: 1, y: 1}
  m_AnchoredPosition: {x: 0, y: 0}
  m_SizeDelta: {x: 0, y: 0}
  m_Pivot: {x: 0.5, y: 0.5}
--- !u!222 &3457215244687442409
CanvasRenderer:
  m_ObjectHideFlags: 0
  m_CorrespondingSourceObject: {fileID: 0}
  m_PrefabInstance: {fileID: 0}
  m_PrefabAsset: {fileID: 0}
  m_GameObject: {fileID: 3457215244687442390}
  m_CullTransparentMesh: 1
--- !u!114 &3457215244687442408
MonoBehaviour:
  m_ObjectHideFlags: 0
  m_CorrespondingSourceObject: {fileID: 0}
  m_PrefabInstance: {fileID: 0}
  m_PrefabAsset: {fileID: 0}
  m_GameObject: {fileID: 3457215244687442390}
  m_Enabled: 1
  m_EditorHideFlags: 0
  m_Script: {fileID: 11500000, guid: fe87c0e1cc204ed48ad3b37840f39efc, type: 3}
  m_Name: 
  m_EditorClassIdentifier: 
  m_Material: {fileID: 0}
  m_Color: {r: 1, g: 1, b: 1, a: 1}
  m_RaycastTarget: 1
  m_RaycastPadding: {x: 0, y: 0, z: 0, w: 0}
  m_Maskable: 0
  m_OnCullStateChanged:
    m_PersistentCalls:
      m_Calls: []
  m_Sprite: {fileID: 21300000, guid: 12aa3985b808fb0f3951de4eacce6c58, type: 3}
  m_Type: 1
  m_PreserveAspect: 0
  m_FillCenter: 1
  m_FillMethod: 4
  m_FillAmount: 1
  m_FillClockwise: 1
  m_FillOrigin: 0
  m_UseSpriteMesh: 0
  m_PixelsPerUnitMultiplier: 1
--- !u!1 &3457215245485719210
GameObject:
  m_ObjectHideFlags: 0
  m_CorrespondingSourceObject: {fileID: 0}
  m_PrefabInstance: {fileID: 0}
  m_PrefabAsset: {fileID: 0}
  serializedVersion: 6
  m_Component:
  - component: {fileID: 3457215245485719211}
  - component: {fileID: 3457215245485719212}
  m_Layer: 5
  m_Name: BaseButton
  m_TagString: Untagged
  m_Icon: {fileID: 0}
  m_NavMeshLayer: 0
  m_StaticEditorFlags: 0
  m_IsActive: 1
--- !u!224 &3457215245485719211
RectTransform:
  m_ObjectHideFlags: 0
  m_CorrespondingSourceObject: {fileID: 0}
  m_PrefabInstance: {fileID: 0}
  m_PrefabAsset: {fileID: 0}
  m_GameObject: {fileID: 3457215245485719210}
  m_LocalRotation: {x: 0, y: 0, z: 0, w: 1}
  m_LocalPosition: {x: 0, y: 0, z: 0}
  m_LocalScale: {x: 1, y: 1, z: 1}
  m_ConstrainProportionsScale: 0
  m_Children:
  - {fileID: 3457215244687442391}
  - {fileID: 4192792946287042763}
  m_Father: {fileID: 0}
  m_RootOrder: 0
  m_LocalEulerAnglesHint: {x: 0, y: 0, z: 0}
  m_AnchorMin: {x: 0, y: 0}
  m_AnchorMax: {x: 0, y: 0}
  m_AnchoredPosition: {x: 0, y: 0}
  m_SizeDelta: {x: 500, y: 144}
  m_Pivot: {x: 0.5, y: 0.5}
--- !u!114 &3457215245485719212
MonoBehaviour:
  m_ObjectHideFlags: 0
  m_CorrespondingSourceObject: {fileID: 0}
  m_PrefabInstance: {fileID: 0}
  m_PrefabAsset: {fileID: 0}
  m_GameObject: {fileID: 3457215245485719210}
  m_Enabled: 1
  m_EditorHideFlags: 0
  m_Script: {fileID: 11500000, guid: 4e29b1a8efbd4b44bb3f3716e73f07ff, type: 3}
  m_Name: 
  m_EditorClassIdentifier: 
  m_Navigation:
    m_Mode: 3
    m_WrapAround: 0
    m_SelectOnUp: {fileID: 0}
    m_SelectOnDown: {fileID: 0}
    m_SelectOnLeft: {fileID: 0}
    m_SelectOnRight: {fileID: 0}
  m_Transition: 1
  m_Colors:
    m_NormalColor: {r: 1, g: 1, b: 1, a: 1}
    m_HighlightedColor: {r: 0.9607843, g: 0.9607843, b: 0.9607843, a: 1}
    m_PressedColor: {r: 0.78431374, g: 0.78431374, b: 0.78431374, a: 1}
    m_SelectedColor: {r: 0.9607843, g: 0.9607843, b: 0.9607843, a: 1}
    m_DisabledColor: {r: 0.78431374, g: 0.78431374, b: 0.78431374, a: 0.5019608}
    m_ColorMultiplier: 1
    m_FadeDuration: 0.1
  m_SpriteState:
    m_HighlightedSprite: {fileID: 0}
    m_PressedSprite: {fileID: 0}
    m_SelectedSprite: {fileID: 0}
    m_DisabledSprite: {fileID: 0}
  m_AnimationTriggers:
    m_NormalTrigger: Normal
    m_HighlightedTrigger: Highlighted
    m_PressedTrigger: Pressed
    m_SelectedTrigger: Selected
    m_DisabledTrigger: Disabled
  m_Interactable: 1
  m_TargetGraphic: {fileID: 3457215244687442408}
  m_OnClick:
    m_PersistentCalls:
      m_Calls: []
--- !u!1001 &3457215244840057789
PrefabInstance:
  m_ObjectHideFlags: 0
  serializedVersion: 2
  m_Modification:
    m_TransformParent: {fileID: 3457215245485719211}
    m_Modifications:
    - target: {fileID: 1573361603384073078, guid: c053c99056c43ca53bdc9c77e8a4b7cb, type: 3}
      propertyPath: m_Pivot.x
      value: 0.5
      objectReference: {fileID: 0}
    - target: {fileID: 1573361603384073078, guid: c053c99056c43ca53bdc9c77e8a4b7cb, type: 3}
      propertyPath: m_Pivot.y
      value: 0.5
      objectReference: {fileID: 0}
    - target: {fileID: 1573361603384073078, guid: c053c99056c43ca53bdc9c77e8a4b7cb, type: 3}
      propertyPath: m_RootOrder
      value: 1
      objectReference: {fileID: 0}
    - target: {fileID: 1573361603384073078, guid: c053c99056c43ca53bdc9c77e8a4b7cb, type: 3}
      propertyPath: m_AnchorMax.x
      value: 1
      objectReference: {fileID: 0}
    - target: {fileID: 1573361603384073078, guid: c053c99056c43ca53bdc9c77e8a4b7cb, type: 3}
      propertyPath: m_AnchorMax.y
      value: 1
      objectReference: {fileID: 0}
    - target: {fileID: 1573361603384073078, guid: c053c99056c43ca53bdc9c77e8a4b7cb, type: 3}
      propertyPath: m_AnchorMin.x
      value: 0
      objectReference: {fileID: 0}
    - target: {fileID: 1573361603384073078, guid: c053c99056c43ca53bdc9c77e8a4b7cb, type: 3}
      propertyPath: m_AnchorMin.y
      value: 0
      objectReference: {fileID: 0}
    - target: {fileID: 1573361603384073078, guid: c053c99056c43ca53bdc9c77e8a4b7cb, type: 3}
      propertyPath: m_SizeDelta.x
      value: -100
      objectReference: {fileID: 0}
    - target: {fileID: 1573361603384073078, guid: c053c99056c43ca53bdc9c77e8a4b7cb, type: 3}
      propertyPath: m_SizeDelta.y
      value: 0
      objectReference: {fileID: 0}
    - target: {fileID: 1573361603384073078, guid: c053c99056c43ca53bdc9c77e8a4b7cb, type: 3}
      propertyPath: m_LocalPosition.x
      value: 0
      objectReference: {fileID: 0}
    - target: {fileID: 1573361603384073078, guid: c053c99056c43ca53bdc9c77e8a4b7cb, type: 3}
      propertyPath: m_LocalPosition.y
      value: 0
      objectReference: {fileID: 0}
    - target: {fileID: 1573361603384073078, guid: c053c99056c43ca53bdc9c77e8a4b7cb, type: 3}
      propertyPath: m_LocalPosition.z
      value: 0
      objectReference: {fileID: 0}
    - target: {fileID: 1573361603384073078, guid: c053c99056c43ca53bdc9c77e8a4b7cb, type: 3}
      propertyPath: m_LocalRotation.w
      value: 1
      objectReference: {fileID: 0}
    - target: {fileID: 1573361603384073078, guid: c053c99056c43ca53bdc9c77e8a4b7cb, type: 3}
      propertyPath: m_LocalRotation.x
      value: 0
      objectReference: {fileID: 0}
    - target: {fileID: 1573361603384073078, guid: c053c99056c43ca53bdc9c77e8a4b7cb, type: 3}
      propertyPath: m_LocalRotation.y
      value: 0
      objectReference: {fileID: 0}
    - target: {fileID: 1573361603384073078, guid: c053c99056c43ca53bdc9c77e8a4b7cb, type: 3}
      propertyPath: m_LocalRotation.z
      value: 0
      objectReference: {fileID: 0}
    - target: {fileID: 1573361603384073078, guid: c053c99056c43ca53bdc9c77e8a4b7cb, type: 3}
      propertyPath: m_AnchoredPosition.x
      value: 0
      objectReference: {fileID: 0}
    - target: {fileID: 1573361603384073078, guid: c053c99056c43ca53bdc9c77e8a4b7cb, type: 3}
      propertyPath: m_AnchoredPosition.y
      value: 0
      objectReference: {fileID: 0}
    - target: {fileID: 1573361603384073078, guid: c053c99056c43ca53bdc9c77e8a4b7cb, type: 3}
      propertyPath: m_LocalEulerAnglesHint.x
      value: 0
      objectReference: {fileID: 0}
    - target: {fileID: 1573361603384073078, guid: c053c99056c43ca53bdc9c77e8a4b7cb, type: 3}
      propertyPath: m_LocalEulerAnglesHint.y
      value: 0
      objectReference: {fileID: 0}
    - target: {fileID: 1573361603384073078, guid: c053c99056c43ca53bdc9c77e8a4b7cb, type: 3}
      propertyPath: m_LocalEulerAnglesHint.z
      value: 0
      objectReference: {fileID: 0}
    - target: {fileID: 5713392895815223259, guid: c053c99056c43ca53bdc9c77e8a4b7cb, type: 3}
      propertyPath: m_Name
      value: BaseText (TMP)
      objectReference: {fileID: 0}
    - target: {fileID: 7127887298607221115, guid: c053c99056c43ca53bdc9c77e8a4b7cb, type: 3}
      propertyPath: m_text
      value: Button 1
      objectReference: {fileID: 0}
    - target: {fileID: 7127887298607221115, guid: c053c99056c43ca53bdc9c77e8a4b7cb, type: 3}
      propertyPath: m_fontSize
      value: 40
      objectReference: {fileID: 0}
    - target: {fileID: 7127887298607221115, guid: c053c99056c43ca53bdc9c77e8a4b7cb, type: 3}
      propertyPath: m_fontSizeMax
      value: 40
      objectReference: {fileID: 0}
    - target: {fileID: 7127887298607221115, guid: c053c99056c43ca53bdc9c77e8a4b7cb, type: 3}
      propertyPath: m_enableAutoSizing
      value: 1
      objectReference: {fileID: 0}
    - target: {fileID: 7127887298607221115, guid: c053c99056c43ca53bdc9c77e8a4b7cb, type: 3}
      propertyPath: m_fontColor32.rgba
      value: 4278190080
      objectReference: {fileID: 0}
    - target: {fileID: 7127887298607221115, guid: c053c99056c43ca53bdc9c77e8a4b7cb, type: 3}
      propertyPath: m_VerticalAlignment
      value: 512
      objectReference: {fileID: 0}
    - target: {fileID: 7127887298607221115, guid: c053c99056c43ca53bdc9c77e8a4b7cb, type: 3}
      propertyPath: m_HorizontalAlignment
      value: 1
      objectReference: {fileID: 0}
    m_RemovedComponents: []
  m_SourcePrefab: {fileID: 100100000, guid: c053c99056c43ca53bdc9c77e8a4b7cb, type: 3}
--- !u!224 &4192792946287042763 stripped
RectTransform:
  m_CorrespondingSourceObject: {fileID: 1573361603384073078, guid: c053c99056c43ca53bdc9c77e8a4b7cb, type: 3}
  m_PrefabInstance: {fileID: 3457215244840057789}
  m_PrefabAsset: {fileID: 0}
