%YAML 1.1
%TAG !u! tag:unity3d.com,2011:
--- !u!687078895 &4343727234628468602
SpriteAtlas:
  m_ObjectHideFlags: 0
  m_CorrespondingSourceObject: {fileID: 0}
  m_PrefabInstance: {fileID: 0}
  m_PrefabAsset: {fileID: 0}
  m_Name: atlas
  m_EditorData:
    serializedVersion: 2
    textureSettings:
      serializedVersion: 2
      anisoLevel: 1
      compressionQuality: 50
      maxTextureSize: 2048
      textureCompression: 0
      filterMode: 1
      generateMipMaps: 0
      readable: 0
      crunchedCompression: 0
      sRGB: 1
    platformSettings: []
    packingSettings:
      serializedVersion: 2
      padding: 4
      blockOffset: 1
      allowAlphaSplitting: 0
      enableRotation: 1
      enableTightPacking: 1
      enableAlphaDilation: 0
    secondaryTextureSettings: {}
    variantMultiplier: 1
    packables:
    - {fileID: 102900000, guid: 00494721d1d4ceac28dd8a25b67f1fee, type: 3}
    bindAsDefault: 1
    isAtlasV2: 0
    cachedData: {fileID: 0}
  m_MasterAtlas: {fileID: 0}
  m_PackedSprites:
  - {fileID: 21300000, guid: bfa03ce3eb1e3f5c881b0ccd5ffd0e7e, type: 3}
  - {fileID: 21300000, guid: 1fc91c04ab7f67c4aa23bb0cb4639a27, type: 3}
  - {fileID: 21300000, guid: 12aa3985b808fb0f3951de4eacce6c58, type: 3}
  - {fileID: 21300000, guid: 0258251c5a276fb92aad5624caabb93a, type: 3}
  m_PackedSpriteNamesToIndex:
  - 3
  - 2
  - 1
  - 4
  m_RenderDataMap: {}
  m_Tag: atlas
  m_IsVariant: 0
